{
  "myRejectedAssignments": {
    "assignments": [
      {
        "quantity": 1,
        "order": {
          "id": "64",
          "createdDate": "2025-03-03T08:31:08.436014Z",
          "survey": {
            "surveyName": "01-02/03/2025"
          }
        }
      },
      {
        "quantity": 1,
        "order": {
          "id": "91",
          "createdDate": "2025-04-20T21:47:23.555349Z",
          "survey": {
            "surveyName": "01-20/04/2025"
          }
        }
      },
      {
        "quantity": 1,
        "order": {
          "id": "88",
          "createdDate": "2025-04-17T11:02:11.845681Z",
          "survey": {
            "surveyName": "01-17/04/2025"
          }
        }
      },
      {
        "quantity": 7,
        "order": {
          "id": "91",
          "createdDate": "2025-04-20T21:47:23.555349Z",
          "survey": {
            "surveyName": "01-20/04/2025"
          }
        }
      },
      {
        "quantity": 8,
        "order": {
          "id": "90",
          "createdDate": "2025-04-17T12:55:20.415389Z",
          "survey": {
            "surveyName": "03-17/04/2025"
          }
        }
      },
      {
        "quantity": 6,
        "order": {
          "id": "37",
          "createdDate": "2024-12-01T05:51:58.008244Z",
          "survey": {
            "surveyName": "01/01-12-2024"
          }
        }
      }
    ],
    "pageInfo": {
      "hasNext": true,
      "currentPage": 0,
      "totalPages": 2,
      "totalElements": 7
    }
  }
}
